<?xml version="1.0" encoding="utf-8"?>
<!-- Generator: Adobe Illustrator 26.1.0, SVG Export Plug-In . SVG Version: 6.00 Build 0)  -->
<svg version="1.1" id="Calque_1" xmlns="http://www.w3.org/2000/svg" xmlns:xlink="http://www.w3.org/1999/xlink" x="0px" y="0px"
	 viewBox="0 0 633.3 41" style="enable-background:new 0 0 633.3 41;" xml:space="preserve">
<style type="text/css">
	.st0{opacity:0.7;fill:#FFFFFF;}
	.st1{fill:none;stroke:#000000;stroke-miterlimit:10;}
	.st2{fill:none;stroke:#FFFFFF;stroke-miterlimit:10;}
</style>
<g>
	<path class="st0" d="M613.3,39.5H20C9.2,39.5,0.5,30.8,0.5,20v0C0.5,9.2,9.2,0.5,20,0.5h593.3c10.8,0,19.5,8.7,19.5,19.5v0
		C632.8,30.8,624.1,39.5,613.3,39.5z"/>
	<path class="st1" d="M613.3,40.5H20C9.2,40.5,0.5,31.8,0.5,21v0C0.5,10.2,9.2,1.5,20,1.5h593.3c10.8,0,19.5,8.7,19.5,19.5v0
		C632.8,31.8,624.1,40.5,613.3,40.5z"/>
	<path class="st2" d="M613.3,39.5H20C9.2,39.5,0.5,30.8,0.5,20v0C0.5,9.2,9.2,0.5,20,0.5h593.3c10.8,0,19.5,8.7,19.5,19.5v0
		C632.8,30.8,624.1,39.5,613.3,39.5z"/>
</g>
</svg>
