%YAML 1.1
%TAG !u! tag:unity3d.com,2011:
--- !u!181963792 &2655988077585873504
Preset:
  m_ObjectHideFlags: 0
  m_CorrespondingSourceObject: {fileID: 0}
  m_PrefabInstance: {fileID: 0}
  m_PrefabAsset: {fileID: 0}
  m_Name: Outline
  m_TargetType:
    m_NativeTypeID: 114
    m_ManagedTypePPtr: {fileID: 11500000, guid: e19747de3f5aca642ab2be37e372fb86,
      type: 3}
    m_ManagedTypeFallback: 
  m_Properties:
  - target: {fileID: 0}
    propertyPath: m_Enabled
    value: 1
    objectReference: {fileID: 0}
  - target: {fileID: 0}
    propertyPath: m_EditorHideFlags
    value: 0
    objectReference: {fileID: 0}
  - target: {fileID: 0}
    propertyPath: m_EditorClassIdentifier
    value: 
    objectReference: {fileID: 0}
  - target: {fileID: 0}
    propertyPath: m_EffectColor.r
    value: 0.8980393
    objectReference: {fileID: 0}
  - target: {fileID: 0}
    propertyPath: m_EffectColor.g
    value: 0.57254905
    objectReference: {fileID: 0}
  - target: {fileID: 0}
    propertyPath: m_EffectColor.b
    value: 0.10196079
    objectReference: {fileID: 0}
  - target: {fileID: 0}
    propertyPath: m_EffectColor.a
    value: 1
    objectReference: {fileID: 0}
  - target: {fileID: 0}
    propertyPath: m_EffectDistance.x
    value: 3
    objectReference: {fileID: 0}
  - target: {fileID: 0}
    propertyPath: m_EffectDistance.y
    value: 3
    objectReference: {fileID: 0}
  - target: {fileID: 0}
    propertyPath: m_UseGraphicAlpha
    value: 0
    objectReference: {fileID: 0}
