%YAML 1.1
%TAG !u! tag:unity3d.com,2011:
--- !u!1 &167770
GameObject:
  m_ObjectHideFlags: 0
  m_CorrespondingSourceObject: {fileID: 0}
  m_PrefabInstance: {fileID: 0}
  m_PrefabAsset: {fileID: 0}
  serializedVersion: 6
  m_Component:
  - component: {fileID: 467770}
  - component: {fileID: 11467770}
  m_Layer: 0
  m_Name: QRCodeEncodeController
  m_TagString: Untagged
  m_Icon: {fileID: 0}
  m_NavMeshLayer: 0
  m_StaticEditorFlags: 0
  m_IsActive: 1
--- !u!4 &467770
Transform:
  m_ObjectHideFlags: 0
  m_CorrespondingSourceObject: {fileID: 0}
  m_PrefabInstance: {fileID: 0}
  m_PrefabAsset: {fileID: 0}
  m_GameObject: {fileID: 167770}
  m_LocalRotation: {x: 0, y: 0, z: 0, w: 1}
  m_LocalPosition: {x: 145.23164, y: 360.7336, z: 1.1293805}
  m_LocalScale: {x: 1, y: 1, z: 1}
  m_ConstrainProportionsScale: 0
  m_Children: []
  m_Father: {fileID: 0}
  m_RootOrder: 0
  m_LocalEulerAnglesHint: {x: 0, y: 0, z: 0}
--- !u!114 &11467770
MonoBehaviour:
  m_ObjectHideFlags: 0
  m_CorrespondingSourceObject: {fileID: 0}
  m_PrefabInstance: {fileID: 0}
  m_PrefabAsset: {fileID: 0}
  m_GameObject: {fileID: 167770}
  m_Enabled: 1
  m_EditorHideFlags: 0
  m_Script: {fileID: 11500000, guid: 1790ae409cc819048a43a428cc182322, type: 3}
  m_Name: 
  m_EditorClassIdentifier: 
  e_QRCodeWidth: 1300
  e_QRCodeHeight: 1300
  eCodeFormat: 0
  e_QRLogoTex: {fileID: 2800000, guid: 24f6449b0015b4888bd3276d40768b87, type: 3}
  e_EmbedLogoRatio: 0.2
  onQREncodeFinished:
    m_PersistentCalls:
      m_Calls: []
