<?xml version="1.0" encoding="utf-8"?>
<!-- Generator: Adobe Illustrator 26.0.1, SVG Export Plug-In . SVG Version: 6.00 Build 0)  -->
<svg version="1.1" id="Calque_1" xmlns="http://www.w3.org/2000/svg" xmlns:xlink="http://www.w3.org/1999/xlink" x="0px" y="0px"
	 viewBox="0 0 512 512" enable-background="new 0 0 512 512" xml:space="preserve">
<g id="_17_Group_Idea">
	<path fill="#451D71" d="M128,304c4.4,0,8-3.6,8-8c0-21.7-12.6-41.5-32.3-50.7c11.9-13.1,10.9-33.3-2.2-45.2s-33.3-10.9-45.2,2.2
		c-11.1,12.2-11.1,30.8,0,43C36.6,254.5,24,274.3,24,296c0,4.4,3.6,8,8,8H128z M64,224c0-8.8,7.2-16,16-16s16,7.2,16,16
		s-7.2,16-16,16S64,232.8,64,224z M80,256c19,0,35.4,13.4,39.2,32H40.8C44.6,269.4,61,256,80,256z"/>
	<path fill="#451D71" d="M256,344c-17.7,0-32,14.3-32,32s14.3,32,32,32s32-14.3,32-32S273.7,344,256,344z M256,392
		c-8.8,0-16-7.2-16-16s7.2-16,16-16c8.8,0,16,7.2,16,16S264.8,392,256,392z"/>
	<path fill="#451D71" d="M455.7,245.3c11.9-13.1,10.9-33.3-2.2-45.2c-13.1-11.9-33.3-10.9-45.2,2.2c-11.1,12.2-11.1,30.8,0,43
		c-19.7,9.2-32.3,28.9-32.3,50.7c0,4.4,3.6,8,8,8h96c4.4,0,8-3.6,8-8C488,274.3,475.4,254.5,455.7,245.3z M416,224
		c0-8.8,7.2-16,16-16s16,7.2,16,16s-7.2,16-16,16S416,232.8,416,224z M392.8,288c4.4-21.6,25.5-35.6,47.2-31.2
		c15.7,3.2,28,15.5,31.2,31.2H392.8z"/>
	<path fill="#451D71" d="M80,344c0-13.3-10.7-24-24-24s-24,10.7-24,24s10.7,24,24,24S80,357.3,80,344z M56,352c-4.4,0-8-3.6-8-8
		s3.6-8,8-8s8,3.6,8,8S60.4,352,56,352z"/>
	<path fill="#451D71" d="M88,128c13.3,0,24-10.7,24-24s-10.7-24-24-24s-24,10.7-24,24S74.7,128,88,128z M88,96c4.4,0,8,3.6,8,8
		s-3.6,8-8,8s-8-3.6-8-8S83.6,96,88,96z"/>
	<path fill="#451D71" d="M424,128c13.3,0,24-10.7,24-24s-10.7-24-24-24s-24,10.7-24,24S410.7,128,424,128z M424,96c4.4,0,8,3.6,8,8
		s-3.6,8-8,8s-8-3.6-8-8S419.6,96,424,96z"/>
	<path fill="#451D71" d="M456,320c-13.3,0-24,10.7-24,24s10.7,24,24,24s24-10.7,24-24S469.3,320,456,320z M456,352c-4.4,0-8-3.6-8-8
		s3.6-8,8-8s8,3.6,8,8S460.4,352,456,352z"/>
	<path fill="#451D71" d="M192,248c0,8.8,7.2,16,16,16v16c0,6.3,3.7,11.9,9.4,14.5l5.3,21.3c1.8,7.1,8.2,12.1,15.5,12.1h35.5
		c7.3,0,13.8-5,15.5-12.1l5.3-21.3c5.7-2.6,9.4-8.3,9.4-14.5v-16c8.8,0,16-7.2,16-16c0-14.8,7.9-24.5,18-36.8
		c13.4-16.3,30-36.6,30-75.2c0-61.9-50.1-112-112-112S144,74.1,144,136c0,38.6,16.6,58.9,30,75.2C184.1,223.5,192,233.2,192,248z
		 M224,168h-8c-4.4,0-8-3.6-8-8s3.6-8,8-8s8,3.6,8,8V168z M240,184h32v64h-32V184z M273.8,312h-35.5l-4-16h43.5L273.8,312z M288,280
		h-64v-16h64V280z M256,40c53,0.1,95.9,43,96,96c0,32.9-13.4,49.3-26.4,65.1C315,214.1,304,227.5,304,248h-16v-64h8
		c13.3,0,24-10.7,24-24s-10.7-24-24-24s-24,10.7-24,24v8h-32v-8c0-13.3-10.7-24-24-24s-24,10.7-24,24s10.7,24,24,24h8v64h-16
		c0-20.5-11-33.9-21.6-46.9c-13-15.9-26.4-32.2-26.4-65.1C160.1,83,203,40.1,256,40z M288,168v-8c0-4.4,3.6-8,8-8s8,3.6,8,8
		s-3.6,8-8,8H288z"/>
	<path fill="#451D71" d="M173.6,405.7c20.9-16.3,24.6-46.5,8.2-67.4c-16.3-20.9-46.5-24.6-67.4-8.2s-24.6,46.5-8.2,67.4
		c2.4,3.1,5.2,5.8,8.2,8.2C84,417.8,64.1,447.3,64,480c0,4.4,3.6,8,8,8h144c4.4,0,8-3.6,8-8C224,447.3,204,417.9,173.6,405.7z
		 M112,368c0-17.7,14.3-32,32-32s32,14.3,32,32s-14.3,32-32,32S112,385.7,112,368z M113.1,472c1.4-5.5,4.2-10.6,8.3-14.6
		c3.2-3.1,3.3-8.1,0.2-11.3s-8.1-3.3-11.3-0.2c-0.1,0.1-0.1,0.1-0.2,0.2c-7.1,7-11.7,16.1-13.4,25.9H80.5
		c4.4-35.1,36.4-59.9,71.5-55.6c29,3.6,51.9,26.5,55.6,55.6H113.1z"/>
	<path fill="#451D71" d="M397.6,405.7c20.9-16.3,24.6-46.5,8.2-67.4c-16.3-20.9-46.5-24.6-67.4-8.2s-24.6,46.5-8.2,67.4
		c2.4,3.1,5.2,5.8,8.2,8.2C308,417.8,288.1,447.3,288,480c0,4.4,3.6,8,8,8h144c4.4,0,8-3.6,8-8C448,447.3,428,417.9,397.6,405.7z
		 M336,368c0-17.7,14.3-32,32-32s32,14.3,32,32s-14.3,32-32,32S336,385.7,336,368z M415.3,472c-1.6-9.8-6.3-18.9-13.4-25.9
		c-3-3.2-8.1-3.4-11.3-0.4c-3.2,3-3.4,8.1-0.4,11.3c0.1,0.1,0.2,0.2,0.4,0.4c4,4,6.9,9.1,8.3,14.6h-94.4
		c4.4-35.1,36.4-59.9,71.5-55.6c29,3.6,51.9,26.5,55.6,55.6H415.3z"/>
</g>
</svg>
